{
  "DJIF450": {
    "mB"         : "1.2 ",
    "g"          : "9.81",
    "dxm"        : "0.16",
    "dym"        : "0.16",
    "dzm"        : "0.05",
    "IB"         : "[[0.0123, 0,      0     ], [0,      0.0123, 0     ], [0,      0,      0.0224]]",
    "IRzz"       : "2.7e-5",
    "Cd"         : "0.1",
    "kTh"        : "1.076e-5",
    "kTo"        : "1.632e-7",
    "minThr"     : "0.4",
    "maxThr"     : "36.72",
    "minWmotor"  : "75",
    "maxWmotor"  : "925 ",
    "tau"        : "0.015",
    "kp"         : "1.0",
    "damp"       : "1.0",
    "motorc1"    : "8.49",
    "motorc0"    : "74.7",
    "motordeadband" : "1",

    "Py"          : "1.0",
    "Pz"          : "2.0",
    "Pxdot"       : "5.0",
    "Dxdot"       : "0.5",
    "Ixdot"       : "5.0",
    "Pzdot"       : "6.0",
    "Dzdot"       : "0.2",
    "Izdot"       : "8.0",
    "Pphi"        : "8.0",
    "Ppsi"        : "1.5",
    "PpsiStrong"  : "8"  ,
    "Pp"          : "1.5",
    "Dp"          : "0.04",
    "Pr"          : "1.0" ,
    "Dr"          : "0.1" ,
    "uMax"        : "5.0",
    "vMax"        : "5.0",
    "wMax"        : "5.0",
    "velMaxAll"   : "5.0",
    "tiltMax"     : "50.0" ,
    "pMax"        : "200.0",
    "qMax"        : "200.0" ,
    "rMax"        : "150.0"
  },
  "DJIF450FAST": {
    "mB"         : "1.2 ",
    "g"          : "9.81",
    "dxm"        : "0.16",
    "dym"        : "0.16",
    "dzm"        : "0.05",
    "IB"         : "[[0.0123, 0,      0     ], [0,      0.0123, 0     ], [0,      0,      0.0224]]",
    "IRzz"       : "2.7e-5",
    "Cd"         : "0.1",
    "kTh"        : "1.076e-5",
    "kTo"        : "1.632e-7",
    "minThr"     : "4",
    "maxThr"     : "367.2",
    "minWmotor"  : "150",
    "maxWmotor"  : "2000 ",
    "tau"        : "0.015",
    "kp"         : "1.0",
    "damp"       : "1.0",
    "motorc1"    : "8.49",
    "motorc0"    : "74.7",
    "motordeadband" : "1",

    "Py"          : "1.5",
    "Pz"          : "2.0",
    "Pxdot"       : "3.0",
    "Dxdot"       : "0.5",
    "Ixdot"       : "5.0",
    "Pzdot"       : "4.0",
    "Dzdot"       : "0.2",
    "Izdot"       : "8.0",
    "Pphi"        : "8.0",
    "Ppsi"        : "1.5",
    "PpsiStrong"  : "8"  ,
    "Pp"          : "0.25",
    "Dp"          : "0.04",
    "Pr"          : "1.0" ,
    "Dr"          : "0.1" ,
    "uMax"        : "12.0",
    "vMax"        : "12.0",
    "wMax"        : "12.0",
    "velMaxAll"   : "12.0",
    "tiltMax"     : "50.0" ,
    "pMax"        : "200.0",
    "qMax"        :"200.0" ,
    "rMax"        :"150.0"

  }
}